com/rehearsalserver/controller/User/UpdateUserController.class
com/rehearsalserver/API/FirebaseMessaging.class
com/rehearsalserver/config/SecurityConfig.class
com/rehearsalserver/util/GoogleMailer.class
com/rehearsalserver/Application.class
com/rehearsalserver/security/utils/JwtAuthenticationEntryPoint.class
com/rehearsalserver/model/response/Response.class
com/rehearsalserver/util/HibernateUtil.class
com/rehearsalserver/controller/User/RegisterUserController.class
com/rehearsalserver/service/BookingService$Keys.class
com/rehearsalserver/model/entity/NotificationRequestEntity$Data.class
com/rehearsalserver/util/GoogleMailer$1.class
com/rehearsalserver/jobs/NotifyAboutTodayBookingsJob.class
com/rehearsalserver/controller/Booking/GetBookingByKeyController.class
com/rehearsalserver/controller/Booking/SetBookingController.class
com/rehearsalserver/security/JWTFilter.class
com/rehearsalserver/controller/User/UserDeviceUpdateController.class
com/rehearsalserver/controller/Booking/GetBookingNotification.class
com/rehearsalserver/util/Constants.class
com/rehearsalserver/model/entity/FirebaseSendMessageResponse$Result.class
com/rehearsalserver/model/entity/NotificationRequestEntity.class
com/rehearsalserver/service/UserService.class
com/rehearsalserver/controller/User/AuthUserController.class
com/rehearsalserver/security/utils/JWTTokenUtil.class
com/rehearsalserver/service/BookingService$1.class
com/rehearsalserver/model/entity/FirebaseSendMessageResponse.class
com/rehearsalserver/util/RetrofitUtil.class
com/rehearsalserver/service/BookingService.class
com/rehearsalserver/controller/HTML/RulesController.class
com/rehearsalserver/controller/User/MeUserController.class
com/rehearsalserver/controller/Error/ErrorHandlerController.class
com/rehearsalserver/controller/Booking/GetBookingController.class
com/rehearsalserver/model/entity/UserRoleEntity.class
com/rehearsalserver/model/entity/UserEntity.class
com/rehearsalserver/model/entity/BookingEntity.class
